sample,threadCount,runTime,maxMemoryUsage
0,4,20810,2181021616
0,8,13766,2181022032
0,2,36800,2181019680
0,16,8429,2181027176
0,32,6920,2181041360
0,1,50654,2807978988
1,2,36260,2181019680
1,16,8362,2181027176
1,8,13241,2181022032
1,32,6463,2181041360
1,1,50573,2807978988
1,4,20101,2181020464
2,8,13115,2181022032
2,32,6607,2181041360
2,16,8429,2181027176
2,1,50765,2807978988
2,4,20046,2181020464
2,2,34670,2181019680
3,16,8728,2181027176
3,1,51764,2807978988
3,32,6733,2181041360
3,4,19843,2181020464
3,2,35288,2181019680
3,8,13643,2181022032
4,32,6729,2181041360
4,4,20815,2181020464
4,1,52125,2807978988
4,2,35495,2181019680
4,8,13354,2181022032
4,16,9069,2181027176
5,1,52123,2807978988
5,2,35252,2181019680
5,4,19416,2181020464
5,8,13416,2181022032
5,16,8655,2181027176
5,32,6809,2181041360
6,4,20371,2181020464
6,8,13546,2181022032
6,2,35604,2181019680
6,16,8744,2181027176
6,32,6784,2181041360
6,1,50471,2807978988
7,2,35256,2181019680
7,16,8799,2181027176
7,8,13748,2181022032
7,32,6737,2181041360
7,1,50481,2807978988
7,4,20357,2181020464
8,8,13402,2181022032
8,32,6754,2181041360
8,16,9030,2181027176
8,1,50403,2807978988
8,4,19855,2181020464
8,2,35021,2181019680
9,16,8659,2181027176
9,1,50439,2807978988
9,32,6842,2181041360
9,4,20851,2181020464
9,2,36976,2181019680
9,8,13740,2181022032
